{
  "project_info": {
    "project_number": "417193293258",
    "firebase_url": "https://btrade-504da.firebaseio.com",
    "project_id": "btrade-504da",
    "storage_bucket": "btrade-504da.appspot.com"
  },
  "client": [
    {
      "client_info": {
        "mobilesdk_app_id": "1:417193293258:android:def1142a6b8c58f8",
        "android_client_info": {
          "package_name": "com.example.noe.btrade2"
        }
      },
      "oauth_client": [
        {
          "client_id": "417193293258-p404bofvh84tt2ejpumbpfdlmtl5u9dv.apps.googleusercontent.com",
          "client_type": 3
        }
      ],
      "api_key": [
        {
          "current_key": "AIzaSyAQA2zzJ2ddhR5uCmzdo7OqeMB6tjiWHiE"
        }
      ],
      "services": {
        "analytics_service": {
          "status": 1
        },
        "appinvite_service": {
          "status": 1,
          "other_platform_oauth_client": []
        },
        "ads_service": {
          "status": 2
        }
      }
    }
  ],
  "configuration_version": "1"
}